%YAML 1.1
%TAG !u! tag:unity3d.com,2011:
--- !u!1045 &1
EditorBuildSettings:
  m_ObjectHideFlags: 0
  serializedVersion: 2
  m_Scenes:
  - enabled: 1
    path: Assets/Scenes/Persistent.unity
    guid: 9969ffe425dfb6f4fb47b14c578542a0
  - enabled: 1
    path: Assets/Scenes/Menu.unity
    guid: b86bc19da2884ec4693b1fd8ac57288a
  - enabled: 1
    path: Assets/Scenes/Game.unity
    guid: b8f1267d7e08f1e4ea9b7b726e908971
  - enabled: 1
    path: Assets/Scenes/Statistic.unity
    guid: 049661696baa38940b07443e9e95787e
  m_configObjects: {}
