%YAML 1.1
%TAG !u! tag:unity3d.com,2011:
--- !u!1 &6307274349692053691
GameObject:
  m_ObjectHideFlags: 0
  m_CorrespondingSourceObject: {fileID: 0}
  m_PrefabInstance: {fileID: 0}
  m_PrefabAsset: {fileID: 0}
  serializedVersion: 6
  m_Component:
  - component: {fileID: 7154959470875869635}
  - component: {fileID: 7884558437145384129}
  m_Layer: 0
  m_Name: Drone
  m_TagString: Untagged
  m_Icon: {fileID: 0}
  m_NavMeshLayer: 0
  m_StaticEditorFlags: 0
  m_IsActive: 1
--- !u!4 &7154959470875869635
Transform:
  m_ObjectHideFlags: 0
  m_CorrespondingSourceObject: {fileID: 0}
  m_PrefabInstance: {fileID: 0}
  m_PrefabAsset: {fileID: 0}
  m_GameObject: {fileID: 6307274349692053691}
  m_LocalRotation: {x: 0, y: 0, z: 0, w: 1}
  m_LocalPosition: {x: 1.424, y: 0, z: 0}
  m_LocalScale: {x: 10, y: 10, z: 10}
  m_Children:
  - {fileID: 5118382536158357867}
  m_Father: {fileID: 0}
  m_RootOrder: 0
  m_LocalEulerAnglesHint: {x: 0, y: 0, z: 0}
--- !u!114 &7884558437145384129
MonoBehaviour:
  m_ObjectHideFlags: 0
  m_CorrespondingSourceObject: {fileID: 0}
  m_PrefabInstance: {fileID: 0}
  m_PrefabAsset: {fileID: 0}
  m_GameObject: {fileID: 6307274349692053691}
  m_Enabled: 1
  m_EditorHideFlags: 0
  m_Script: {fileID: 11500000, guid: e3df87783172bae4282662cd0889595d, type: 3}
  m_Name: 
  m_EditorClassIdentifier: 
  drone:
    currentState: 0
--- !u!1001 &5118382536158753789
PrefabInstance:
  m_ObjectHideFlags: 0
  serializedVersion: 2
  m_Modification:
    m_TransformParent: {fileID: 7154959470875869635}
    m_Modifications:
    - target: {fileID: 100022, guid: 0d1dfed319ebadd419ec4d63792c3e03, type: 3}
      propertyPath: m_Name
      value: drone
      objectReference: {fileID: 0}
    - target: {fileID: 400000, guid: 0d1dfed319ebadd419ec4d63792c3e03, type: 3}
      propertyPath: m_LocalEulerAnglesHint.x
      value: -6.2111926
      objectReference: {fileID: 0}
    - target: {fileID: 400000, guid: 0d1dfed319ebadd419ec4d63792c3e03, type: 3}
      propertyPath: m_LocalEulerAnglesHint.y
      value: -57.034317
      objectReference: {fileID: 0}
    - target: {fileID: 400000, guid: 0d1dfed319ebadd419ec4d63792c3e03, type: 3}
      propertyPath: m_LocalEulerAnglesHint.z
      value: 53.699947
      objectReference: {fileID: 0}
    - target: {fileID: 400002, guid: 0d1dfed319ebadd419ec4d63792c3e03, type: 3}
      propertyPath: m_LocalEulerAnglesHint.x
      value: 2.5207272
      objectReference: {fileID: 0}
    - target: {fileID: 400002, guid: 0d1dfed319ebadd419ec4d63792c3e03, type: 3}
      propertyPath: m_LocalEulerAnglesHint.y
      value: 59.671432
      objectReference: {fileID: 0}
    - target: {fileID: 400002, guid: 0d1dfed319ebadd419ec4d63792c3e03, type: 3}
      propertyPath: m_LocalEulerAnglesHint.z
      value: -124.58247
      objectReference: {fileID: 0}
    - target: {fileID: 400004, guid: 0d1dfed319ebadd419ec4d63792c3e03, type: 3}
      propertyPath: m_LocalEulerAnglesHint.z
      value: -57.774094
      objectReference: {fileID: 0}
    - target: {fileID: 400006, guid: 0d1dfed319ebadd419ec4d63792c3e03, type: 3}
      propertyPath: m_LocalEulerAnglesHint.z
      value: -57.774094
      objectReference: {fileID: 0}
    - target: {fileID: 400008, guid: 0d1dfed319ebadd419ec4d63792c3e03, type: 3}
      propertyPath: m_LocalEulerAnglesHint.x
      value: -7.7455285e-15
      objectReference: {fileID: 0}
    - target: {fileID: 400008, guid: 0d1dfed319ebadd419ec4d63792c3e03, type: 3}
      propertyPath: m_LocalEulerAnglesHint.y
      value: -180
      objectReference: {fileID: 0}
    - target: {fileID: 400008, guid: 0d1dfed319ebadd419ec4d63792c3e03, type: 3}
      propertyPath: m_LocalEulerAnglesHint.z
      value: 87.509674
      objectReference: {fileID: 0}
    - target: {fileID: 400010, guid: 0d1dfed319ebadd419ec4d63792c3e03, type: 3}
      propertyPath: m_LocalEulerAnglesHint.x
      value: -7.7455285e-15
      objectReference: {fileID: 0}
    - target: {fileID: 400010, guid: 0d1dfed319ebadd419ec4d63792c3e03, type: 3}
      propertyPath: m_LocalEulerAnglesHint.y
      value: -180
      objectReference: {fileID: 0}
    - target: {fileID: 400010, guid: 0d1dfed319ebadd419ec4d63792c3e03, type: 3}
      propertyPath: m_LocalEulerAnglesHint.z
      value: 87.509674
      objectReference: {fileID: 0}
    - target: {fileID: 400012, guid: 0d1dfed319ebadd419ec4d63792c3e03, type: 3}
      propertyPath: m_LocalEulerAnglesHint.z
      value: -5.4825087
      objectReference: {fileID: 0}
    - target: {fileID: 400014, guid: 0d1dfed319ebadd419ec4d63792c3e03, type: 3}
      propertyPath: m_LocalEulerAnglesHint.z
      value: -5.4825087
      objectReference: {fileID: 0}
    - target: {fileID: 400022, guid: 0d1dfed319ebadd419ec4d63792c3e03, type: 3}
      propertyPath: m_LocalPosition.x
      value: -0
      objectReference: {fileID: 0}
    - target: {fileID: 400022, guid: 0d1dfed319ebadd419ec4d63792c3e03, type: 3}
      propertyPath: m_LocalPosition.y
      value: 0
      objectReference: {fileID: 0}
    - target: {fileID: 400022, guid: 0d1dfed319ebadd419ec4d63792c3e03, type: 3}
      propertyPath: m_LocalPosition.z
      value: 0
      objectReference: {fileID: 0}
    - target: {fileID: 400022, guid: 0d1dfed319ebadd419ec4d63792c3e03, type: 3}
      propertyPath: m_LocalRotation.x
      value: 0
      objectReference: {fileID: 0}
    - target: {fileID: 400022, guid: 0d1dfed319ebadd419ec4d63792c3e03, type: 3}
      propertyPath: m_LocalRotation.y
      value: -0
      objectReference: {fileID: 0}
    - target: {fileID: 400022, guid: 0d1dfed319ebadd419ec4d63792c3e03, type: 3}
      propertyPath: m_LocalRotation.z
      value: -0
      objectReference: {fileID: 0}
    - target: {fileID: 400022, guid: 0d1dfed319ebadd419ec4d63792c3e03, type: 3}
      propertyPath: m_LocalRotation.w
      value: 1
      objectReference: {fileID: 0}
    - target: {fileID: 400022, guid: 0d1dfed319ebadd419ec4d63792c3e03, type: 3}
      propertyPath: m_RootOrder
      value: 0
      objectReference: {fileID: 0}
    - target: {fileID: 400022, guid: 0d1dfed319ebadd419ec4d63792c3e03, type: 3}
      propertyPath: m_LocalEulerAnglesHint.x
      value: 0
      objectReference: {fileID: 0}
    - target: {fileID: 400022, guid: 0d1dfed319ebadd419ec4d63792c3e03, type: 3}
      propertyPath: m_LocalEulerAnglesHint.y
      value: 0
      objectReference: {fileID: 0}
    - target: {fileID: 400022, guid: 0d1dfed319ebadd419ec4d63792c3e03, type: 3}
      propertyPath: m_LocalEulerAnglesHint.z
      value: 0
      objectReference: {fileID: 0}
    - target: {fileID: 400024, guid: 0d1dfed319ebadd419ec4d63792c3e03, type: 3}
      propertyPath: m_LocalEulerAnglesHint.y
      value: -90
      objectReference: {fileID: 0}
    - target: {fileID: 400024, guid: 0d1dfed319ebadd419ec4d63792c3e03, type: 3}
      propertyPath: m_LocalEulerAnglesHint.z
      value: 3.2563858
      objectReference: {fileID: 0}
    - target: {fileID: 400026, guid: 0d1dfed319ebadd419ec4d63792c3e03, type: 3}
      propertyPath: m_LocalEulerAnglesHint.y
      value: 90
      objectReference: {fileID: 0}
    - target: {fileID: 400026, guid: 0d1dfed319ebadd419ec4d63792c3e03, type: 3}
      propertyPath: m_LocalEulerAnglesHint.z
      value: 88.49399
      objectReference: {fileID: 0}
    - target: {fileID: 400034, guid: 0d1dfed319ebadd419ec4d63792c3e03, type: 3}
      propertyPath: m_LocalEulerAnglesHint.x
      value: -2.8359132
      objectReference: {fileID: 0}
    - target: {fileID: 400034, guid: 0d1dfed319ebadd419ec4d63792c3e03, type: 3}
      propertyPath: m_LocalEulerAnglesHint.y
      value: 44.574234
      objectReference: {fileID: 0}
    - target: {fileID: 400034, guid: 0d1dfed319ebadd419ec4d63792c3e03, type: 3}
      propertyPath: m_LocalEulerAnglesHint.z
      value: 45.018005
      objectReference: {fileID: 0}
    - target: {fileID: 400038, guid: 0d1dfed319ebadd419ec4d63792c3e03, type: 3}
      propertyPath: m_LocalEulerAnglesHint.x
      value: -2.524435
      objectReference: {fileID: 0}
    - target: {fileID: 400038, guid: 0d1dfed319ebadd419ec4d63792c3e03, type: 3}
      propertyPath: m_LocalEulerAnglesHint.y
      value: 85.58876
      objectReference: {fileID: 0}
    - target: {fileID: 400038, guid: 0d1dfed319ebadd419ec4d63792c3e03, type: 3}
      propertyPath: m_LocalEulerAnglesHint.z
      value: 142.45267
      objectReference: {fileID: 0}
    - target: {fileID: 400040, guid: 0d1dfed319ebadd419ec4d63792c3e03, type: 3}
      propertyPath: m_LocalEulerAnglesHint.x
      value: 0.6790736
      objectReference: {fileID: 0}
    - target: {fileID: 400040, guid: 0d1dfed319ebadd419ec4d63792c3e03, type: 3}
      propertyPath: m_LocalEulerAnglesHint.y
      value: -87.85191
      objectReference: {fileID: 0}
    - target: {fileID: 400040, guid: 0d1dfed319ebadd419ec4d63792c3e03, type: 3}
      propertyPath: m_LocalEulerAnglesHint.z
      value: -39.41234
      objectReference: {fileID: 0}
    - target: {fileID: 400042, guid: 0d1dfed319ebadd419ec4d63792c3e03, type: 3}
      propertyPath: m_LocalEulerAnglesHint.z
      value: 61.226917
      objectReference: {fileID: 0}
    - target: {fileID: 400044, guid: 0d1dfed319ebadd419ec4d63792c3e03, type: 3}
      propertyPath: m_LocalEulerAnglesHint.z
      value: 64.48386
      objectReference: {fileID: 0}
    - target: {fileID: 400046, guid: 0d1dfed319ebadd419ec4d63792c3e03, type: 3}
      propertyPath: m_LocalEulerAnglesHint.x
      value: 6.350427e-15
      objectReference: {fileID: 0}
    - target: {fileID: 400046, guid: 0d1dfed319ebadd419ec4d63792c3e03, type: 3}
      propertyPath: m_LocalEulerAnglesHint.y
      value: 180
      objectReference: {fileID: 0}
    - target: {fileID: 400046, guid: 0d1dfed319ebadd419ec4d63792c3e03, type: 3}
      propertyPath: m_LocalEulerAnglesHint.z
      value: -73.00697
      objectReference: {fileID: 0}
    - target: {fileID: 400048, guid: 0d1dfed319ebadd419ec4d63792c3e03, type: 3}
      propertyPath: m_LocalEulerAnglesHint.x
      value: 8.525949e-15
      objectReference: {fileID: 0}
    - target: {fileID: 400048, guid: 0d1dfed319ebadd419ec4d63792c3e03, type: 3}
      propertyPath: m_LocalEulerAnglesHint.y
      value: 180
      objectReference: {fileID: 0}
    - target: {fileID: 400048, guid: 0d1dfed319ebadd419ec4d63792c3e03, type: 3}
      propertyPath: m_LocalEulerAnglesHint.z
      value: -88.70079
      objectReference: {fileID: 0}
    - target: {fileID: 400050, guid: 0d1dfed319ebadd419ec4d63792c3e03, type: 3}
      propertyPath: m_LocalEulerAnglesHint.z
      value: -1.7749071
      objectReference: {fileID: 0}
    - target: {fileID: 400052, guid: 0d1dfed319ebadd419ec4d63792c3e03, type: 3}
      propertyPath: m_LocalEulerAnglesHint.z
      value: 28.927652
      objectReference: {fileID: 0}
    - target: {fileID: 400058, guid: 0d1dfed319ebadd419ec4d63792c3e03, type: 3}
      propertyPath: m_LocalEulerAnglesHint.x
      value: -13.668857
      objectReference: {fileID: 0}
    - target: {fileID: 400058, guid: 0d1dfed319ebadd419ec4d63792c3e03, type: 3}
      propertyPath: m_LocalEulerAnglesHint.y
      value: 60.143726
      objectReference: {fileID: 0}
    - target: {fileID: 400058, guid: 0d1dfed319ebadd419ec4d63792c3e03, type: 3}
      propertyPath: m_LocalEulerAnglesHint.z
      value: 97.58004
      objectReference: {fileID: 0}
    - target: {fileID: 400060, guid: 0d1dfed319ebadd419ec4d63792c3e03, type: 3}
      propertyPath: m_LocalEulerAnglesHint.x
      value: 2.3480833
      objectReference: {fileID: 0}
    - target: {fileID: 400060, guid: 0d1dfed319ebadd419ec4d63792c3e03, type: 3}
      propertyPath: m_LocalEulerAnglesHint.y
      value: -58.51828
      objectReference: {fileID: 0}
    - target: {fileID: 400060, guid: 0d1dfed319ebadd419ec4d63792c3e03, type: 3}
      propertyPath: m_LocalEulerAnglesHint.z
      value: -81.58371
      objectReference: {fileID: 0}
    - target: {fileID: 400062, guid: 0d1dfed319ebadd419ec4d63792c3e03, type: 3}
      propertyPath: m_LocalEulerAnglesHint.z
      value: 65.10366
      objectReference: {fileID: 0}
    - target: {fileID: 400064, guid: 0d1dfed319ebadd419ec4d63792c3e03, type: 3}
      propertyPath: m_LocalEulerAnglesHint.z
      value: 67.55973
      objectReference: {fileID: 0}
    - target: {fileID: 400066, guid: 0d1dfed319ebadd419ec4d63792c3e03, type: 3}
      propertyPath: m_LocalEulerAnglesHint.z
      value: -77.461845
      objectReference: {fileID: 0}
    - target: {fileID: 400068, guid: 0d1dfed319ebadd419ec4d63792c3e03, type: 3}
      propertyPath: m_LocalEulerAnglesHint.z
      value: -81.64741
      objectReference: {fileID: 0}
    - target: {fileID: 400070, guid: 0d1dfed319ebadd419ec4d63792c3e03, type: 3}
      propertyPath: m_LocalEulerAnglesHint.x
      value: 7.7174764e-15
      objectReference: {fileID: 0}
    - target: {fileID: 400070, guid: 0d1dfed319ebadd419ec4d63792c3e03, type: 3}
      propertyPath: m_LocalEulerAnglesHint.y
      value: -87.37884
      objectReference: {fileID: 0}
    - target: {fileID: 400070, guid: 0d1dfed319ebadd419ec4d63792c3e03, type: 3}
      propertyPath: m_LocalEulerAnglesHint.z
      value: -159.86478
      objectReference: {fileID: 0}
    - target: {fileID: 400072, guid: 0d1dfed319ebadd419ec4d63792c3e03, type: 3}
      propertyPath: m_LocalEulerAnglesHint.x
      value: 8.50447e-15
      objectReference: {fileID: 0}
    - target: {fileID: 400072, guid: 0d1dfed319ebadd419ec4d63792c3e03, type: 3}
      propertyPath: m_LocalEulerAnglesHint.y
      value: -180
      objectReference: {fileID: 0}
    - target: {fileID: 400072, guid: 0d1dfed319ebadd419ec4d63792c3e03, type: 3}
      propertyPath: m_LocalEulerAnglesHint.z
      value: -145.12395
      objectReference: {fileID: 0}
    - target: {fileID: 400078, guid: 0d1dfed319ebadd419ec4d63792c3e03, type: 3}
      propertyPath: m_LocalEulerAnglesHint.x
      value: 3.6442075
      objectReference: {fileID: 0}
    - target: {fileID: 400078, guid: 0d1dfed319ebadd419ec4d63792c3e03, type: 3}
      propertyPath: m_LocalEulerAnglesHint.y
      value: -90.02448
      objectReference: {fileID: 0}
    - target: {fileID: 400078, guid: 0d1dfed319ebadd419ec4d63792c3e03, type: 3}
      propertyPath: m_LocalEulerAnglesHint.z
      value: 179.62047
      objectReference: {fileID: 0}
    - target: {fileID: 400080, guid: 0d1dfed319ebadd419ec4d63792c3e03, type: 3}
      propertyPath: m_LocalEulerAnglesHint.x
      value: 1.2129594e-14
      objectReference: {fileID: 0}
    - target: {fileID: 400080, guid: 0d1dfed319ebadd419ec4d63792c3e03, type: 3}
      propertyPath: m_LocalEulerAnglesHint.y
      value: -180
      objectReference: {fileID: 0}
    - target: {fileID: 400080, guid: 0d1dfed319ebadd419ec4d63792c3e03, type: 3}
      propertyPath: m_LocalEulerAnglesHint.z
      value: -36.98501
      objectReference: {fileID: 0}
    - target: {fileID: 9500000, guid: 0d1dfed319ebadd419ec4d63792c3e03, type: 3}
      propertyPath: m_Controller
      value: 
      objectReference: {fileID: 9100000, guid: 4639e4a6e8453f340805fb13c7a2f498, type: 2}
    - target: {fileID: 13700000, guid: 0d1dfed319ebadd419ec4d63792c3e03, type: 3}
      propertyPath: m_LightProbeUsage
      value: 0
      objectReference: {fileID: 0}
    - target: {fileID: 13700000, guid: 0d1dfed319ebadd419ec4d63792c3e03, type: 3}
      propertyPath: m_ReflectionProbeUsage
      value: 0
      objectReference: {fileID: 0}
    - target: {fileID: 13700000, guid: 0d1dfed319ebadd419ec4d63792c3e03, type: 3}
      propertyPath: m_CastShadows
      value: 0
      objectReference: {fileID: 0}
    - target: {fileID: 13700000, guid: 0d1dfed319ebadd419ec4d63792c3e03, type: 3}
      propertyPath: m_MotionVectors
      value: 2
      objectReference: {fileID: 0}
    - target: {fileID: 13700000, guid: 0d1dfed319ebadd419ec4d63792c3e03, type: 3}
      propertyPath: m_ReceiveShadows
      value: 0
      objectReference: {fileID: 0}
    - target: {fileID: 13700000, guid: 0d1dfed319ebadd419ec4d63792c3e03, type: 3}
      propertyPath: m_Materials.Array.data[0]
      value: 
      objectReference: {fileID: 2100000, guid: d310a3acd802b80469c8009a4c9a5cda, type: 2}
    m_RemovedComponents: []
  m_SourcePrefab: {fileID: 100100000, guid: 0d1dfed319ebadd419ec4d63792c3e03, type: 3}
--- !u!4 &5118382536158357867 stripped
Transform:
  m_CorrespondingSourceObject: {fileID: 400022, guid: 0d1dfed319ebadd419ec4d63792c3e03,
    type: 3}
  m_PrefabInstance: {fileID: 5118382536158753789}
  m_PrefabAsset: {fileID: 0}
